…
    ## Warning: NAs introduced by coercion
    
    ## Warning: NAs introduced by coercion

    ## Warning in max(df$Result, na.rm = T): no non-missing arguments to max;
    ## returning -Inf

    ## # A tibble: 22 x 8
    ##    SampleAgencyCode LocationCode MethodName `Riparian Groun~
    ##    <chr>            <chr>        <chr>      <chr>           
    ##  1 DFW-ABL          BlockA, Left FieldObse~ 2               
    ##  2 DFW-ABL          BlockA, Rig~ FieldObse~ 3               
    ##  3 DFW-ABL          BlockB, Left FieldObse~ 2               
    ##  4 DFW-ABL          BlockB, Rig~ FieldObse~ 4               
    ##  5 DFW-ABL          BlockC, Left FieldObse~ 2               
    ##  6 DFW-ABL          BlockC, Rig~ FieldObse~ 4               
    ##  7 DFW-ABL          BlockD, Left FieldObse~ 4               
    ##  8 DFW-ABL          BlockD, Rig~ FieldObse~ 4               
    ##  9 DFW-ABL          BlockE, Left FieldObse~ 2               
    ## 10 DFW-ABL          BlockE, Rig~ FieldObse~ 4               
    ## # ... with 12 more rows, and 4 more variables: `Riparian GroundCover Woody
    ## #   Shrubs` <chr>, `Riparian Lower Canopy All Vegetation` <chr>, `Riparian
    ## #   Upper Canopy All Trees` <chr>, GroundCoverPresence <lgl>
    ## [1] 22
    ## [1] 22
    ## # A tibble: 22 x 8
    ##    SampleAgencyCode LocationCode MethodName `Riparian Groun~
    ##    <chr>            <chr>        <chr>      <chr>           
    ##  1 MPSL-DFW         BlockA, Left FieldObse~ 3               
    ##  2 MPSL-DFW         BlockA, Rig~ FieldObse~ 0               
    ##  3 MPSL-DFW         BlockB, Left FieldObse~ 3               
    ##  4 MPSL-DFW         BlockB, Rig~ FieldObse~ 1               
    ##  5 MPSL-DFW         BlockC, Left FieldObse~ 1               
    ##  6 MPSL-DFW         BlockC, Rig~ FieldObse~ 1               
    ##  7 MPSL-DFW         BlockD, Left FieldObse~ 1               
    ##  8 MPSL-DFW         BlockD, Rig~ FieldObse~ 0               
    ##  9 MPSL-DFW         BlockE, Left FieldObse~ 0               
    ## 10 MPSL-DFW         BlockE, Rig~ FieldObse~ 1               
    ## # ... with 12 more rows, and 4 more variables: `Riparian GroundCover Woody
    ## #   Shrubs` <chr>, `Riparian Lower Canopy All Vegetation` <chr>, `Riparian
    ## #   Upper Canopy All Trees` <chr>, GroundCoverPresence <lgl>
    ## [1] 22
    ## [1] 20
    ## # A tibble: 22 x 8
    ##    SampleAgencyCode LocationCode MethodName `Riparian Groun~
    ##    <chr>            <chr>        <chr>      <chr>           
    ##  1 DFW-ABL          BlockA, Left FieldObse~ 1               
    ##  2 DFW-ABL          BlockA, Rig~ FieldObse~ 1               
    ##  3 DFW-ABL          BlockB, Left FieldObse~ 1               
    ##  4 DFW-ABL          BlockB, Rig~ FieldObse~ 2               
    ##  5 DFW-ABL          BlockC, Left FieldObse~ 0               
    ##  6 DFW-ABL          BlockC, Rig~ FieldObse~ 1               
    ##  7 DFW-ABL          BlockD, Left FieldObse~ 1               
    ##  8 DFW-ABL          BlockD, Rig~ FieldObse~ 1               
    ##  9 DFW-ABL          BlockE, Left FieldObse~ 2               
    ## 10 DFW-ABL          BlockE, Rig~ FieldObse~ 1               
    ## # ... with 12 more rows, and 4 more variables: `Riparian GroundCover Woody
    ## #   Shrubs` <chr>, `Riparian Lower Canopy All Vegetation` <chr>, `Riparian
    ## #   Upper Canopy All Trees` <chr>, GroundCoverPresence <lgl>
    ## [1] 22
    ## [1] 17
    ## # A tibble: 22 x 8
    ##    SampleAgencyCode LocationCode MethodName `Riparian Groun~
    ##    <chr>            <chr>        <chr>      <chr>           
    ##  1 MPSL-DFW         BlockA, Left FieldObse~ 2               
    ##  2 MPSL-DFW         BlockA, Rig~ FieldObse~ 3               
    ##  3 MPSL-DFW         BlockB, Left FieldObse~ 3               
    ##  4 MPSL-DFW         BlockB, Rig~ FieldObse~ 2               
    ##  5 MPSL-DFW         BlockC, Left FieldObse~ 3               
    ##  6 MPSL-DFW         BlockC, Rig~ FieldObse~ 1               
    ##  7 MPSL-DFW         BlockD, Left FieldObse~ 1               
    ##  8 MPSL-DFW         BlockD, Rig~ FieldObse~ 2               
    ##  9 MPSL-DFW         BlockE, Left FieldObse~ 2               
    ## 10 MPSL-DFW         BlockE, Rig~ FieldObse~ 1               
    ## # ... with 12 more rows, and 4 more variables: `Riparian GroundCover Woody
    ## #   Shrubs` <chr>, `Riparian Lower Canopy All Vegetation` <chr>, `Riparian
    ## #   Upper Canopy All Trees` <chr>, GroundCoverPresence <lgl>
    ## [1] 22
    ## [1] 21
    ## [1] "PCT_MAP.count"
    ##  105PS0231_2013-08-29_DFW-ABL 205PS0202_2013-07-17_MPSL-DFW 
    ##                           105                           103 
    ##  308PS0204_2013-05-21_DFW-ABL 520PS0455_2013-07-22_MPSL-DFW 
…
